Capitulo 3 Bivariado con variables categoricas | Analisis exploratorio de datos (EDA)
…
Tabla de comparación de y con job.

data %>%
  group_by(y, job) %>%
  count(name = "n") %>%
  mutate(porcentaje = (n / sum(n)) * 100)

## # A tibble: 24 × 4
## # Groups:   y, job [24]
##    y     job               n porcentaje
##    <fct> <fct>         <int>      <dbl>
##  1 no    admin.          420        100
##  2 no    blue-collar     877        100
##  3 no    entrepreneur    153        100
##  4 no    housemaid        98        100
##  5 no    management      838        100
##  6 no    retired         176        100
##  7 no    self-employed   163        100
##  8 no    services        379        100
##  9 no    student          65        100
## 10 no    technician      685        100
## # ℹ 14 more rows
…
